hypothesis_testing
…
#convert long for visualization
marriage_long <- marriage_categorical %>%
  pivot_longer(cols = -Region, names_to = "Indicator", values_to = "Response")

#calculate proportions
marriage_proportions <- marriage_long %>%
  group_by(Region, Indicator, Response) %>%
  summarise(Count = n(), .groups = "drop") %>%
  mutate(Proportion = Count / sum(Count))

print(marriage_proportions)

# A tibble: 63 × 5
   Region              Indicator                       Response Count Proportion
   <chr>               <chr>                           <chr>    <int>      <dbl>
 1 East Asia & Pacific Can.a.woman.be.head.of.househo… No           2    0.00211
 2 East Asia & Pacific Can.a.woman.be.head.of.househo… Yes         23    0.0242 
 3 East Asia & Pacific Can.a.woman.obtain.a.judgment.… No           4    0.00421
 4 East Asia & Pacific Can.a.woman.obtain.a.judgment.… Yes         21    0.0221 
 5 East Asia & Pacific Does.a.woman.have.the.same.rig… No           7    0.00737
 6 East Asia & Pacific Does.a.woman.have.the.same.rig… Yes         18    0.0189 
 7 East Asia & Pacific Is.the.law.free.of.legal.provi… No           2    0.00211
 8 East Asia & Pacific Is.the.law.free.of.legal.provi… Yes         23    0.0242 
 9 East Asia & Pacific Is.there.legislation.specifica… No           2    0.00211
10 East Asia & Pacific Is.there.legislation.specifica… Yes         23    0.0242 
# ℹ 53 more rows
…
