Workplace EDA
…
For the question ‘Are.there.criminal.penalties.or.civil.remedies.for.sexual.harassment.in.employment.’ variable, there is a greater percentage of nos in Middle East and North Africa and Asia and Pacific and the least percentage of no’s for South Asia and High Income OECD

econimic_indicator_gender_inequality_pivot_long<- economic_indicators_and_gender_inequality_data_subset %>%
  pivot_longer(
    cols = c(Foreign_direct_investment, agriculture_forestry_value_added, 
             GNI.per.capita, net_barter_terms_of_trade_index, 
             gdp_per_person_employed),
    names_to = "Economic_Indicator",
    values_to = "values"
  )

econimic_indicator_gender_inequality_pivot_long

# A tibble: 950 × 14
   Economy     Economy.Code ISO.Code Region   Income.Group Report.Year WBL.INDEX
   <chr>       <chr>        <chr>    <chr>    <chr>              <int>     <dbl>
 1 afghanistan AFG          AFG      South A… Low income          2018      38.1
 2 afghanistan AFG          AFG      South A… Low income          2018      38.1
 3 afghanistan AFG          AFG      South A… Low income          2018      38.1
 4 afghanistan AFG          AFG      South A… Low income          2018      38.1
 5 afghanistan AFG          AFG      South A… Low income          2018      38.1
 6 albania     ALB          ALB      Europe … Upper middl…        2018      91.3
 7 albania     ALB          ALB      Europe … Upper middl…        2018      91.3
 8 albania     ALB          ALB      Europe … Upper middl…        2018      91.3
 9 albania     ALB          ALB      Europe … Upper middl…        2018      91.3
10 albania     ALB          ALB      Europe … Upper middl…        2018      91.3
# ℹ 940 more rows
# ℹ 7 more variables: WORKPLACE <int>,
#   Can.a.woman.get.a.job.in.the.same.way.as.a.man. <chr>,
#   Does.the.law.prohibit.discrimination.in.employment.based.on.gender. <chr>,
#   Is.there.legislation.on.sexual.harassment.in.employment. <chr>,
#   Are.there.criminal.penalties.or.civil.remedies.for.sexual.harassment.in.employment. <chr>,
#   Economic_Indicator <chr>, values <dbl>
…
